…
> library(naivebayes)
naivebayes 0.9.7 loaded
> library(kknn)
> 
> amazon_train <- vroom("train.csv")
Rows: 32769 Columns: 10
── Column specification ────────────────────────────────────────────────────────
Delimiter: ","
dbl (10): ACTION, RESOURCE, MGR_ID, ROLE_ROLLUP_1, ROLE_ROLLUP_2, ROLE_DEPTN...

ℹ Use `spec()` to retrieve the full column specification for this data.
ℹ Specify the column types or set `show_col_types = FALSE` to quiet this message.
> amazon_train$ACTION <- factor(amazon_train$ACTION)
> amazon_train
# A tibble: 32,769 × 10
   ACTION RESOURCE MGR_ID ROLE_ROLLUP_1 ROLE_ROLLUP_2 ROLE_DEPTNAME ROLE_TITLE
   <fct>     <dbl>  <dbl>         <dbl>         <dbl>         <dbl>      <dbl>
 1 1         39353  85475        117961        118300        123472     117905
 2 1         17183   1540        117961        118343        123125     118536
 3 1         36724  14457        118219        118220        117884     117879
 4 1         36135   5396        117961        118343        119993     118321
 5 1         42680   5905        117929        117930        119569     119323
 6 0         45333  14561        117951        117952        118008     118568
 7 1         25993  17227        117961        118343        123476     118980
 8 1         19666   4209        117961        117969        118910     126820
 9 1         31246    783        117961        118413        120584     128230
10 1         78766  56683        118079        118080        117878     117879
# ℹ 32,759 more rows
# ℹ 3 more variables: ROLE_FAMILY_DESC <dbl>, ROLE_FAMILY <dbl>,
#   ROLE_CODE <dbl>
> 
> amazon_test <- vroom("test.csv")
Rows: 58921 Columns: 10
── Column specification ────────────────────────────────────────────────────────
Delimiter: ","
dbl (10): id, RESOURCE, MGR_ID, ROLE_ROLLUP_1, ROLE_ROLLUP_2, ROLE_DEPTNAME,...

ℹ Use `spec()` to retrieve the full column specification for this data.
ℹ Specify the column types or set `show_col_types = FALSE` to quiet this message.
> amazon_test
# A tibble: 58,921 × 10
      id RESOURCE MGR_ID ROLE_ROLLUP_1 ROLE_ROLLUP_2 ROLE_DEPTNAME ROLE_TITLE
   <dbl>    <dbl>  <dbl>         <dbl>         <dbl>         <dbl>      <dbl>
 1     1    78766  72734        118079        118080        117878     117879
 2     2    40644   4378        117961        118327        118507     118863
 3     3    75443   2395        117961        118300        119488     118172
 4     4    43219  19986        117961        118225        118403     120773
 5     5    42093  50015        117961        118343        119598     118422
 6     6    44722   1755        117961        117962        119223     125793
 7     7    75834  21135        117961        118343        123494     118054
 8     8     4675   3077        117961        118300        120312     124194
 9     9    18072  15575        117902        118041        118623     280788
10    10    22680   4474        117961        118446        119064     118321
# ℹ 58,911 more rows
# ℹ 3 more variables: ROLE_FAMILY_DESC <dbl>, ROLE_FAMILY <dbl>,
#   ROLE_CODE <dbl>
…
